a:4:{s:5:"value";O:8:"stdClass":33:{s:17:"short_description";s:278:"<p>Klassische Camper-Form. Schwarzer Clipverschluss. 4 schwarze, Metallösen. Weiches Buckram. Passender Untervisor.</p><p>Jockey Mütze mit Camper-Form</p><ul><li>Unstrukturiert</li><li>Schwarzer Clipverschluss</li><li>Passender Untervisor, 8-reihige Nähte am Visier</li></ul>";s:11:"description";s:526:"<p>Durch den charakteristischen 5-Panel-Shape und die flache Passform sitzt die Classic Jockey Cap besonders sicher auf dem Kopf - kein Wunder, dass Radrennfahrer und Jockeys auf diesen Shape schw&ouml;ren. F&uuml;r noch mehr Tragekomfort sorgen ein Clip-Verschluss mit justierbarem Nylonband und seitliche Metall&ouml;sen zur Bel&uuml;ftung.</p>
<ul>
<li>Jockey M&uuml;tze mit Camper-Form</li>
<li>Unstrukturiert</li>
<li>Schwarzer Clipverschluss</li>
<li>Passender Untervisor, 8-reihige N&auml;hte am Visier</li>
</ul>";s:5:"title";s:18:"Jockey Cap <br>Rot";s:9:"published";s:1:"1";s:3:"sku";s:0:"";s:5:"price";s:5:"16,99";s:10:"print_type";s:5:"EMB99";s:9:"min_order";s:0:"";s:8:"max_oder";s:0:"";s:3:"tax";s:0:"";s:10:"sale_price";s:5:"12,99";s:4:"size";s:0:"";s:5:"image";s:80:"https://stickwerk-heilbronn.de/wp-content/uploads/2020/08/bucket-red-300x300.png";s:9:"dpioutput";s:3:"300";s:9:"character";O:8:"stdClass":2:{s:5:"limit";s:0:"";s:10:"capitalize";s:1:"0";}s:21:"productColorPickerFlg";s:1:"0";s:25:"productColorItemStringLst";s:0:"";s:22:"productCheckItemFitFlg";s:1:"0";s:23:"productCheckItemFitType";s:1:"1";s:5:"theme";s:0:"";s:20:"allow_EMB99_printing";s:1:"1";s:21:"product_layout_design";O:8:"stdClass":10:{s:17:"show_product_info";s:1:"1";s:17:"show_product_size";s:1:"1";s:19:"show_change_product";s:1:"1";s:13:"show_add_text";s:1:"1";s:12:"show_add_art";s:1:"1";s:11:"show_upload";s:1:"1";s:13:"show_add_team";s:1:"1";s:15:"show_add_qrcode";s:1:"1";s:15:"show_color_used";s:1:"1";s:16:"show_screen_size";s:1:"1";}s:21:"textdefault_attribute";s:10:"dein Style";s:22:"colordefault_attribute";s:6:"435960";s:22:"productTxtAsSettingFlg";s:1:"1";s:6:"design";O:8:"stdClass":16:{s:9:"color_hex";a:1:{i:0;s:6:"FFFFFF";}s:11:"color_title";a:1:{i:0;s:6:"FFFFFF";}s:5:"price";a:1:{i:0;s:1:"0";}s:11:"page_number";s:0:"";s:10:"page_title";s:4:"Page";s:15:"max_page_number";s:1:"0";s:5:"front";a:1:{i:0;s:274:"{'0':{'id':'area-design'},'1':{'id':'images-1','width':'498px','height':'498px','top':'0px','left':'0px','zIndex':'auto','img':'https://stickwerk-heilbronn.de/tshirtecommerce//uploaded/dg-designer-6194a1ee159830988970117088710037308.png','is_product':1,'is_change_color':0}}";}s:12:"images_front";s:112:"['https://stickwerk-heilbronn.de/tshirtecommerce//uploaded/dg-designer-6194a1ee159830988970117088710037308.png']";s:4:"back";a:1:{i:0;s:0:"";}s:11:"images_back";s:0:"";s:4:"left";a:1:{i:0;s:0:"";}s:11:"images_left";s:0:"";s:5:"right";a:1:{i:0;s:0:"";}s:12:"images_right";s:0:"";s:6:"params";O:8:"stdClass":4:{s:5:"front";s:108:"{'page':'custom','width':'32.76','height':'15.46','lockW':false,'lockH':false,'shape':'square','shapeVal':0}";s:4:"back";s:0:"";s:4:"left";s:0:"";s:5:"right";s:0:"";}s:4:"area";O:8:"stdClass":4:{s:5:"front";s:81:"{'width':322,'height':152,'left':'88px','top':'189px','radius':'0px','zIndex':''}";s:4:"back";s:0:"";s:4:"left";s:0:"";s:5:"right";s:0:"";}}s:10:"view_label";O:8:"stdClass":4:{s:5:"front";s:0:"";s:4:"back";s:0:"";s:4:"left";s:0:"";s:5:"right";s:0:"";}s:9:"box_width";s:3:"500";s:10:"box_height";s:3:"500";s:2:"id";s:2:"73";s:17:"prices_variations";s:0:"";s:7:"gallery";s:0:"";s:10:"attributes";O:8:"stdClass":7:{s:4:"name";a:1:{i:0;s:22:"Erweiterte Einstellung";}s:6:"prices";a:1:{i:0;a:2:{i:0;s:1:"0";i:1;s:2:"10";}}s:6:"titles";a:1:{i:0;a:2:{i:0;s:21:"Hintergrund entfernen";i:1;s:24:"3D Stickerei (Textlogos)";}}s:4:"type";a:1:{i:0;s:8:"checkbox";}s:3:"obj";a:1:{i:0;s:4:"none";}s:8:"required";a:1:{i:0;s:1:"0";}s:5:"value";a:1:{i:0;a:2:{i:0;s:0:"";i:1;s:0:"";}}}}s:10:"write_time";s:10:"1608475090";s:10:"expired_in";i:300;s:12:"expired_time";i:1608475390;}